Section 2: ggplot2
…
Section 2.4: Practice Part 1

Class Exercise 1.

stat113_df

# A tibble: 397 × 12
   Year      Sex     Hgt   Wgt Haircut   GPA Exercise Sport    TV Award   Pulse
   <chr>     <chr> <dbl> <dbl>   <dbl> <dbl>    <dbl> <chr> <dbl> <chr>   <dbl>
 1 Sophomore M        66   155       0  2.9        15 Yes       8 Olympic    72
 2 FirstYear F        69   170      17  3.87       14 Yes      12 Olympic    51
 3 FirstYear F        64   130      40  3.3         5 No        5 Olympic    68
 4 FirstYear M        68   157      35  3.21       10 Yes      15 Olympic    54
 5 FirstYear M        72   175      20  3.1         2 No        5 Nobel      NA
 6 Junior    F        62   150      50  3.3         8 Yes       5 Olympic    86
 7 FirstYear M        70   121      12  3.9         3 Yes      20 Nobel      88
 8 FirstYear M        71   180      20  3.84        7 No       15 Nobel     100
 9 FirstYear M        72   165      10  3.25        3 No       30 Nobel      62
10 FirstYear F        66   150      40  3.75        3 <NA>      6 Nobel      84
# ℹ 387 more rows
# ℹ 1 more variable: SocialMedia <chr>
…
