…
## Section 3.4

```{r}
library(tidyverse)
slumajors_df <- read_csv("https://raw.githubusercontent.com/highamm/ds234_quarto/main/data_online/SLU_Majors_17_21.csv")
slumajors_df
#> # A tibble: 30 × 3
#>   Major                        nfemales nmales
#>   <chr>                           <dbl>  <dbl>
#> 1 Anthropology                       35     13
#> 2 Art & Art History                  62     11
#> 3 Biochemistry                       15      6
#> 4 Biology                           152     58
#> 5 Business in the Liberal Arts      192    301
#> 6 Chemistry                          28     20
#> # ℹ 24 more rows
```
…
