Plotting with ggplot2
…
## there is one outlier

## exercise 2
## histogram might be more familiar to more people
## advantage for frquencyt plot is that you can overlay multiple 
## groups

pres_cat <- pres_df |> mutate(winner = if_else(Gore > Bush,
                                                true = "Gore",
                                                false = "Bush"))
pres_cat

# A tibble: 67 × 7
     Gore   Bush Buchanan Nader Other County    winner
    <dbl>  <dbl>    <dbl> <dbl> <dbl> <chr>     <chr> 
 1  47365  34124      263  3226   751 ALACHUA   Gore  
 2   2392   5610       73    53    26 BAKER     Bush  
 3  18850  38637      248   828   242 BAY       Bush  
 4   3075   5414       65    84    35 BRADFORD  Bush  
 5  97318 115185      570  4470   852 BREVARD   Bush  
 6 386561 177323      788  7101  1623 BROWAR    Gore  
 7   2155   2873       90    39    17 CALHOUN   Bush  
 8  29645  35426      182  1462   181 CHARLOTTE Bush  
 9  25525  29765      270  1379   261 CITRUS    Bush  
10  14632  41736      186   562   237 CLAY      Bush  
# … with 57 more rows
…
